7.12/jizhun-100mvpp/tek0000ALL.csv

Model,MDO34
Firmware Version,1.19.13

Waveform Type,ANALOG
Point Format,Y
Horizontal Units,s
Horizontal Scale,1e-05
Horizontal Delay,0
Sample Interval,1e-08
Record Length,10000
Gating,0.0% to 100.0%
Probe Attenuation,1
Vertical Units,V
Vertical Offset,0
Vertical Scale,0.5
Vertical Position,0
,
,
,
Label,
TIME,CH1
-5.000e-05,0.3
-4.999e-05,0.32
-4.998e-05,0.34
-4.997e-05,0.34
-4.996e-05,0.38
-4.995e-05,0.36
-4.994e-05,0.4
-4.993e-05,0.38
-4.992e-05,0.42
-4.991e-05,0.42
-4.990e-05,0.42
-4.989e-05,0.4
-4.988e-05,0.42
-4.987e-05,0.44
-4.986e-05,0.44
-4.985e-05,0.42
-4.984e-05,0.44
-4.983e-05,0.46
-4.982e-05,0.48
-4.981e-05,0.46
-4.980e-05,0.46
-4.979e-05,0.48
-4.978e-05,0.46
-4.977e-05,0.48
-4.976e-05,0.5
-4.975e-05,0.5
-4.974e-05,0.5
-4.973e-05,0.5
-4.972e-05,0.52
-4.971e-05,0.5
-4.970e-05,0.52
-4.969e-05,0.52
-4.968e-05,0.54
-4.967e-05,0.54
-4.966e-05,0.54
-4.965e-05,0.58
-4.964e-05,0.58
-4.963e-05,0.56
-4.962e-05,0.56
-4.961e-05,0.56
-4.960e-05,0.58
-4.959e-05,0.58
-4.958e-05,0.58
-4.957e-05,0.58
-4.956e-05,0.58
-4.955e-05,0.58
-4.954e-05,0.58
-4.953e-05,0.58
-4.952e-05,0.58
-4.951e-05,0.58
-4.950e-05,0.6
-4.949e-05,0.6
-4.948e-05,0.58
-4.947e-05,0.58
-4.946e-05,0.6
-4.945e-05,0.58
-4.944e-05,0.6
-4.943e-05,0.62
-4.942e-05,0.6
-4.941e-05,0.6
-4.940e-05,0.62
-4.939e-05,0.62
-4.938e-05,0.62
-4.937e-05,0.6
-4.936e-05,0.62
-4.935e-05,0.6
-4.934e-05,0.6
-4.933e-05,0.6
-4.932e-05,0.6
-4.931e-05,0.6
-4.930e-05,0.58
-4.929e-05,0.58
-4.928e-05,0.6
-4.927e-05,0.58
-4.926e-05,0.58
-4.925e-05,0.58
-4.924e-05,0.56
-4.923e-05,0.58
-4.922e-05,0.58
-4.921e-05,0.58
-4.920e-05,0.56
-4.919e-05,0.56
-4.918e-05,0.56
-4.917e-05,0.56
-4.916e-05,0.54
-4.915e-05,0.54
-4.914e-05,0.54
-4.913e-05,0.52
-4.912e-05,0.52
-4.911e-05,0.52
-4.910e-05,0.52
-4.909e-05,0.52
-4.908e-05,0.5
-4.907e-05,0.48
-4.906e-05,0.5
-4.905e-05,0.48
-4.904e-05,0.48
-4.903e-05,0.48
-4.902e-05,0.48
-4.901e-05,0.46
-4.900e-05,0.46
-4.899e-05,0.46
-4.898e-05,0.46
-4.897e-05,0.44
-4.896e-05,0.44
-4.895e-05,0.44
-4.894e-05,0.42
-4.893e-05,0.4
-4.892e-05,0.4
-4.891e-05,0.4
-4.890e-05,0.4
-4.889e-05,0.38
-4.888e-05,0.38
-4.887e-05,0.38
-4.886e-05,0.38
-4.885e-05,0.36
-4.884e-05,0.36
-4.883e-05,0.34
-4.882e-05,0.34
-4.881e-05,0.32
-4.880e-05,0.32
-4.879e-05,0.32
-4.878e-05,0.32
-4.877e-05,0.3
-4.876e-05,0.3
-4.875e-05,0.3
-4.874e-05,0.3
-4.873e-05,0.28
-4.872e-05,0.26
-4.871e-05,0.26
-4.870e-05,0.26
-4.869e-05,0.24
-4.868e-05,0.24
-4.867e-05,0.22
-4.866e-05,0.24
-4.865e-05,0.22
-4.864e-05,0.2
-4.863e-05,0.2
-4.862e-05,0.2
-4.861e-05,0.22
-4.860e-05,0.18
-4.859e-05,0.18
-4.858e-05,0.16
-4.857e-05,0.16
-4.856e-05,0.16
-4.855e-05,0.16
-4.854e-05,0.14
-4.853e-05,0.14
-4.852e-05,0.14
-4.851e-05,0.14
-4.850e-05,0.14
-4.849e-05,0.1
-4.848e-05,0.12
-4.847e-05,0.12
-4.846e-05,0.1
-4.845e-05,0.1
-4.844e-05,0.1
-4.843e-05,0.08
-4.842e-05,0.08
-4.841e-05,0.08
-4.840e-05,0.06
-4.839e-05,0.08
-4.838e-05,0.06
-4.837e-05,0.08
-4.836e-05,0.06
-4.835e-05,0.04
-4.834e-05,0.06
-4.833e-05,0.06
-4.832e-05,0.04
-4.831e-05,0.06
-4.830e-05,0.04
-4.829e-05,0.04
-4.828e-05,0.04
-4.827e-05,0.02
-4.826e-05,0.02
-4.825e-05,0.02
-4.824e-05,0.04
-4.823e-05,0.04
-4.822e-05,0.04
-4.821e-05,0.04
-4.820e-05,0.02
-4.819e-05,0.04
-4.818e-05,0.02
-4.817e-05,0.04
-4.816e-05,0.04
-4.815e-05,0.04
-4.814e-05,0.02
-4.813e-05,0.02
-4.812e-05,0.02
-4.811e-05,0.04
-4.810e-05,0.04
-4.809e-05,0.02
-4.808e-05,0.02
-4.807e-05,0.04
-4.806e-05,0.02
-4.805e-05,0.04
-4.804e-05,0.02
-4.803e-05,0.04
-4.802e-05,0.04
-4.801e-05,0.06
-4.800e-05,0.04
-4.799e-05,0.06
-4.798e-05,0.06
-4.797e-05,0.08
-4.796e-05,0.06
-4.795e-05,0.08
-4.794e-05,0.06
-4.793e-05,0.08
-4.792e-05,0.08
-4.791e-05,0.06
-4.790e-05,0.08
-4.789e-05,0.1
-4.788e-05,0.1
-4.787e-05,0.08
-4.786e-05,0.1
-4.785e-05,0.1
-4.784e-05,0.1
-4.783e-05,0.1
-4.782e-05,0.12
-4.781e-05,0.12
-4.780e-05,0.12
-4.779e-05,0.14
-4.778e-05,0.14
-4.777e-05,0.14
-4.776e-05,0.16
-4.775e-05,0.16
-4.774e-05,0.16
-4.773e-05,0.18
-4.772e-05,0.2
-4.771e-05,0.2
-4.770e-05,0.2
-4.769e-05,0.2
-4.768e-05,0.22
-4.767e-05,0.2
-4.766e-05,0.24
-4.765e-05,0.22
-4.764e-05,0.24
-4.763e-05,0.26
-4.762e-05,0.24
-4.761e-05,0.26
-4.760e-05,0.26
-4.759e-05,0.26
-4.758e-05,0.26
-4.757e-05,0.28
-4.756e-05,0.28
-4.755e-05,0.28
-4.754e-05,0.3
-4.753e-05,0.32
-4.752e-05,0.32
-4.751e-05,0.32
-4.750e-05,0.34
-4.749e-05,0.34
-4.748e-05,0.34
-4.747e-05,0.36
-4.746e-05,0.36
-4.745e-05,0.38
-4.744e-05,0.38
-4.743e-05,0.38
-4.742e-05,0.4
-4.741e-05,0.4
-4.740e-05,0.42
-4.739e-05,0.42
-4.738e-05,0.42
-4.737e-05,0.4
-4.736e-05,0.42
-4.735e-05,0.44
-4.734e-05,0.44
-4.733e-05,0.44
-4.732e-05,0.46
-4.731e-05,0.44
-4.730e-05,0.46
-4.729e-05,0.48
-4.728e-05,0.46
-4.727e-05,0.48
-4.726e-05,0.5
-4.725e-05,0.5
-4.724e-05,0.5
-4.723e-05,0.52
-4.722e-05,0.52
-4.721e-05,0.54
-4.720e-05,0.54
-4.719e-05,0.54
-4.718e-05,0.56
-4.717e-05,0.56
-4.716e-05,0.56
-4.715e-05,0.56
-4.714e-05,0.58
-4.713e-05,0.58
-4.712e-05,0.56
-4.711e-05,0.56
-4.710e-05,0.56
-4.709e-05,0.58
-4.708e-05,0.56
-4.707e-05,0.58
-4.706e-05,0.58
-4.705e-05,0.58
-4.704e-05,0.6
-4.703e-05,0.56
-4.702e-05,0.58
-4.701e-05,0.6
-4.700e-05,0.6
-4.699e-05,0.6
-4.698e-05,0.6
-4.697e-05,0.6
-4.696e-05,0.62
-4.695e-05,0.6
-4.694e-05,0.6
-4.693e-05,0.6
-4.692e-05,0.6
-4.691e-05,0.6
-4.690e-05,0.6
-4.689e-05,0.62
-4.688e-05,0.6
-4.687e-05,0.6
-4.686e-05,0.6
-4.685e-05,0.58
-4.684e-05,0.6
-4.683e-05,0.58
-4.682e-05,0.6
-4.681e-05,0.6
-4.680e-05,0.58
-4.679e-05,0.58
-4.678e-05,0.58
-4.677e-05,0.56
-4.676e-05,0.58
-4.675e-05,0.56
-4.674e-05,0.58
-4.673e-05,0.58
-4.672e-05,0.58
-4.671e-05,0.58
-4.670e-05,0.58
-4.669e-05,0.56
-4.668e-05,0.58
-4.667e-05,0.56
-4.666e-05,0.54
-4.665e-05,0.54
-4.664e-05,0.54
-4.663e-05,0.54
-4.662e-05,0.54
-4.661e-05,0.54
-4.660e-05,0.52
-4.659e-05,0.5
-4.658e-05,0.52
-4.657e-05,0.5
-4.656e-05,0.5
-4.655e-05,0.5
-4.654e-05,0.48
-4.653e-05,0.48
-4.652e-05,0.46
-4.651e-05,0.48
-4.650e-05,0.46
-4.649e-05,0.46
-4.648e-05,0.46
-4.647e-05,0.46
-4.646e-05,0.42
-4.645e-05,0.44
-4.644e-05,0.42
-4.643e-05,0.4
-4.642e-05,0.42
-4.641e-05,0.4
-4.640e-05,0.4
-4.639e-05,0.38
-4.638e-05,0.36
-4.637e-05,0.38
-4.636e-05,0.38
-4.635e-05,0.36
-4.634e-05,0.36
-4.633e-05,0.34
-4.632e-05,0.34
-4.631e-05,0.32
-4.630e-05,0.3
-4.629e-05,0.3
-4.628e-05,0.3
-4.627e-05,0.32
-4.626e-05,0.3
-4.625e-05,0.28
-4.624e-05,0.28
-4.623e-05,0.28
-4.622e-05,0.26
-4.621e-05,0.26
-4.620e-05,0.28
-4.619e-05,0.26
-4.618e-05,0.24
-4.617e-05,0.24
-4.616e-05,0.22
-4.615e-05,0.22
-4.614e-05,0.22
-4.613e-05,0.2
-4.612e-05,0.2
-4.611e-05,0.2
-4.610e-05,0.2
-4.609e-05,0.18
-4.608e-05,0.18
-4.607e-05,0.16
-4.606e-05,0.16
-4.605e-05,0.16
-4.604e-05,0.16
-4.603e-05,0.14
-4.602e-05,0.14
-4.601e-05,0.12
-4.600e-05,0.14
-4.599e-05,0.12
-4.598e-05,0.1
-4.597e-05,0.1
-4.596e-05,0.1
-4.595e-05,0.1
-4.594e-05,0.08
-4.593e-05,0.08
-4.592e-05,0.08
-4.591e-05,0.08
-4.590e-05,0.08
-4.589e-05,0.08
-4.588e-05,0.08
-4.587e-05,0.08
-4.586e-05,0.06
-4.585e-05,0.06
-4.584e-05,0.04
-4.583e-05,0.04
-4.582e-05,0.04
-4.581e-05,0.04
-4.580e-05,0.04
-4.579e-05,0.02
-4.578e-05,0.04
-4.577e-05,0.02
-4.576e-05,0.04
-4.575e-05,0.02
-4.574e-05,0.04
-4.573e-05,0.04
-4.572e-05,0.04
-4.571e-05,0.04
-4.570e-05,0.04
-4.569e-05,0.02
-4.568e-05,0.04
-4.567e-05,0.02
-4.566e-05,0.04
-4.565e-05,0
-4.564e-05,0.02
-4.563e-05,0.04
-4.562e-05,0.02
-4.561e-05,0.02
-4.560e-05,0.04
-4.559e-05,0.02
-4.558e-05,0.02
-4.557e-05,0.04
-4.556e-05,0.04
-4.555e-05,0.04
-4.554e-05,0.06
-4.553e-05,0.04
-4.552e-05,0.04
-4.551e-05,0.04
-4.550e-05,0.08
-4.549e-05,0.06
-4.548e-05,0.06
-4.547e-05,0.06
-4.546e-05,0.04
-4.545e-05,0.06
-4.544e-05,0.06
-4.543e-05,0.06
-4.542e-05,0.06
-4.541e-05,0.08
-4.540e-05,0.08
-4.539e-05,0.1
-4.538e-05,0.1
-4.537e-05,0.12
-4.536e-05,0.1
-4.535e-05,0.12
-4.534e-05,0.1
-4.533e-05,0.12
-4.532e-05,0.1
-4.531e-05,0.12
-4.530e-05,0.12
-4.529e-05,0.14
-4.528e-05,0.14
-4.527e-05,0.14
-4.526e-05,0.16
-4.525e-05,0.16
-4.524e-05,0.18
-4.523e-05,0.18
-4.522e-05,0.18
-4.521e-05,0.22
-4.520e-05,0.2
-4.519e-05,0.2
-4.518e-05,0.2
-4.517e-05,0.2
-4.516e-05,0.24
-4.515e-05,0.22
-4.514e-05,0.24
-4.513e-05,0.22
-4.512e-05,0.26
-4.511e-05,0.24
-4.510e-05,0.26
-4.509e-05,0.26
-4.508e-05,0.28
-4.507e-05,0.3
-4.506e-05,0.3
-4.505e-05,0.3
-4.504e-05,0.3
-4.503e-05,0.32
-4.502e-05,0.3
-4.501e-05,0.32
-4.500e-05,0.34
-4.499e-05,0.36
-4.498e-05,0.34
-4.497e-05,0.38
-4.496e-05,0.38
-4.495e-05,0.36
-4.494e-05,0.38
-4.493e-05,0.38
-4.492e-05,0.4
-4.491e-05,0.4
-4.490e-05,0.4
-4.489e-05,0.4
-4.488e-05,0.42
-4.487e-05,0.44
-4.486e-05,0.42
-4.485e-05,0.46
-4.484e-05,0.42
-4.483e-05,0.44
-4.482e-05,0.46
-4.481e-05,0.46
-4.480e-05,0.46
-4.479e-05,0.46
-4.478e-05,0.48
-4.477e-05,0.48
-4.476e-05,0.5
-4.475e-05,0.5
-4.474e-05,0.5
-4.473e-05,0.52
-4.472e-05,0.52
-4.471e-05,0.52
-4.470e-05,0.54
-4.469e-05,0.54
-4.468e-05,0.52
-4.467e-05,0.54
-4.466e-05,0.54
-4.465e-05,0.56
-4.464e-05,0.56
-4.463e-05,0.54
-4.462e-05,0.58
-4.461e-05,0.58
-4.460e-05,0.56
-4.459e-05,0.56
-4.458e-05,0.58
-4.457e-05,0.56
-4.456e-05,0.6
-4.455e-05,0.58
-4.454e-05,0.58
-4.453e-05,0.58
-4.452e-05,0.6
-4.451e-05,0.6
-4.450e-05,0.6
-4.449e-05,0.58
-4.448e-05,0.6
-4.447e-05,0.6
-4.446e-05,0.6
-4.445e-05,0.6
-4.444e-05,0.6
-4.443e-05,0.6
-4.442e-05,0.6
-4.441e-05,0.6
-4.440e-05,0.6
-4.439e-05,0.6
-4.438e-05,0.6
-4.437e-05,0.6
-4.436e-05,0.6
-4.435e-05,0.6
-4.434e-05,0.62
-4.433e-05,0.6
-4.432e-05,0.58
-4.431e-05,0.58
-4.430e-05,0.6
-4.429e-05,0.58
-4.428e-05,0.56
-4.427e-05,0.58
-4.426e-05,0.58
-4.425e-05,0.58
-4.424e-05,0.58
-4.423e-05,0.58
-4.422e-05,0.6
-4.421e-05,0.58
-4.420e-05,0.6
-4.419e-05,0.58
-4.418e-05,0.58
-4.417e-05,0.56
-4.416e-05,0.56
-4.415e-05,0.56
-4.414e-05,0.52
-4.413e-05,0.52
-4.412e-05,0.52
-4.411e-05,0.5
-4.410e-05,0.52
-4.409e-05,0.52
-4.408e-05,0.5
-4.407e-05,0.5
-4.406e-05,0.5
-4.405e-05,0.5
-4.404e-05,0.5
-4.403e-05,0.48
-4.402e-05,0.48
-4.401e-05,0.46
-4.400e-05,0.46
-4.399e-05,0.46
-4.398e-05,0.44
-4.397e-05,0.44
-4.396e-05,0.44
-4.395e-05,0.42
-4.394e-05,0.42
-4.393e-05,0.42
-4.392e-05,0.4
-4.391e-05,0.4
-4.390e-05,0.4
-4.389e-05,0.4
-4.388e-05,0.4
-4.387e-05,0.38
-4.386e-05,0.36
-4.385e-05,0.36
-4.384e-05,0.34
-4.383e-05,0.34
-4.382e-05,0.32
-4.381e-05,0.32
-4.380e-05,0.32
-4.379e-05,0.32
-4.378e-05,0.3
-4.377e-05,0.32
-4.376e-05,0.3
-4.375e-05,0.3
-4.374e-05,0.28
-4.373e-05,0.28
-4.372e-05,0.28
-4.371e-05,0.28
-4.370e-05,0.28
-4.369e-05,0.26
-4.368e-05,0.24
-4.367e-05,0.24
-4.366e-05,0.24
-4.365e-05,0.22
-4.364e-05,0.2
-4.363e-05,0.2
-4.362e-05,0.22
-4.361e-05,0.18
-4.360e-05,0.18
-4.359e-05,0.18
-4.358e-05,0.18
-4.357e-05,0.16
-4.356e-05,0.16
-4.355e-05,0.14
-4.354e-05,0.14
-4.353e-05,0.14
-4.352e-05,0.14
-4.351e-05,0.12
-4.350e-05,0.12
-4.349e-05,0.12
-4.348e-05,0.12
-4.347e-05,0.12
-4.346e-05,0.1
-4.345e-05,0.1
-4.344e-05,0.12
-4.343e-05,0.12
-4.342e-05,0.1
-4.341e-05,0.08
-4.340e-05,0.08
-4.339e-05,0.08
-4.338e-05,0.1
-4.337e-05,0.06
-4.336e-05,0.08
-4.335e-05,0.06
-4.334e-05,0.04
-4.333e-05,0.06
-4.332e-05,0.04
-4.331e-05,0.02
-4.330e-05,0.04
-4.329e-05,0.04
-4.328e-05,0.04
-4.327e-05,0.06
-4.326e-05,0.06
-4.325e-05,0.04
-4.324e-05,0.04
-4.323e-05,0.04
-4.322e-05,0.02
-4.321e-05,0.02
-4.320e-05,0.02
-4.319e-05,0.02
-4.318e-05,0.02
-4.317e-05,0.02
-4.316e-05,0.04
-4.315e-05,0.02
-4.314e-05,0.02
-4.313e-05,0.04
-4.312e-05,0.04
-4.311e-05,0.04
-4.310e-05,0.02
-4.309e-05,0.04
-4.308e-05,0.04
-4.307e-05,0.02
-4.306e-05,0.04
-4.305e-05,0.04
-4.304e-05,0.04
-4.303e-05,0.04
-4.302e-05,0.04
-4.301e-05,0.04
-4.300e-05,0.04
-4.299e-05,0.06
-4.298e-05,0.06
-4.297e-05,0.04
-4.296e-05,0.06
-4.295e-05,0.06
-4.294e-05,0.08
-4.293e-05,0.08
-4.292e-05,0.08
-4.291e-05,0.08
-4.290e-05,0.08
-4.289e-05,0.08
-4.288e-05,0.1
-4.287e-05,0.1
-4.286e-05,0.1
-4.285e-05,0.1
-4.284e-05,0.12
-4.283e-05,0.12
-4.282e-05,0.12
-4.281e-05,0.12
-4.280e-05,0.12
-4.279e-05,0.14
-4.278e-05,0.14
-4.277e-05,0.14
-4.276e-05,0.16
-4.275e-05,0.16
-4.274e-05,0.16
-4.273e-05,0.18
-4.272e-05,0.2
-4.271e-05,0.18
-4.270e-05,0.18
-4.269e-05,0.18
-4.268e-05,0.2
-4.267e-05,0.2
-4.266e-05,0.22
-4.265e-05,0.24
-4.264e-05,0.22
-4.263e-05,0.24
-4.262e-05,0.26
-4.261e-05,0.26
-4.260e-05,0.28
-4.259e-05,0.28
-4.258e-05,0.3
-4.257e-05,0.3
-4.256e-05,0.28
-4.255e-05,0.3
-4.254e-05,0.3
-4.253e-05,0.32
-4.252e-05,0.32
-4.251e-05,0.34
-4.250e-05,0.32
-4.249e-05,0.34
-4.248e-05,0.34
-4.247e-05,0.36
-4.246e-05,0.36
-4.245e-05,0.36
-4.244e-05,0.38
-4.243e-05,0.4
-4.242e-05,0.4
-4.241e-05,0.4
-4.240e-05,0.4
-4.239e-05,0.4
-4.238e-05,0.42
-4.237e-05,0.44
-4.236e-05,0.44
-4.235e-05,0.44
-4.234e-05,0.44
-4.233e-05,0.44
-4.232e-05,0.46
-4.231e-05,0.48
-4.230e-05,0.48
-4.229e-05,0.48
-4.228e-05,0.48
-4.227e-05,0.48
-4.226e-05,0.5
-4.225e-05,0.48
-4.224e-05,0.5
-4.223e-05,0.5
-4.222e-05,0.5
-4.221e-05,0.5
-4.220e-05,0.52
-4.219e-05,0.52
-4.218e-05,0.54
-4.217e-05,0.54
-4.216e-05,0.56
-4.215e-05,0.58
-4.214e-05,0.56
-4.213e-05,0.58
-4.212e-05,0.56
-4.211e-05,0.58
-4.210e-05,0.56
-4.209e-05,0.58
-4.208e-05,0.58
-4.207e-05,0.6
-4.206e-05,0.58
-4.205e-05,0.6
-4.204e-05,0.58
-4.203e-05,0.58
-4.202e-05,0.58
-4.201e-05,0.6
-4.200e-05,0.6
-4.199e-05,0.58
-4.198e-05,0.58
-4.197e-05,0.6
-4.196e-05,0.6
-4.195e-05,0.62
-4.194e-05,0.62
-4.193e-05,0.6
-4.192e-05,0.6
-4.191e-05,0.62
-4.190e-05,0.62
-4.189e-05,0.62
-4.188e-05,0.58
-4.187e-05,0.6
-4.186e-05,0.6
-4.185e-05,0.6
-4.184e-05,0.6
-4.183e-05,0.6
-4.182e-05,0.62
-4.181e-05,0.58
-4.180e-05,0.58
-4.179e-05,0.6
-4.178e-05,0.58
-4.177e-05,0.6
-4.176e-05,0.58
-4.175e-05,0.58
-4.174e-05,0.58
-4.173e-05,0.58
-4.172e-05,0.56
-4.171e-05,0.58
-4.170e-05,0.56
-4.169e-05,0.56
-4.168e-05,0.56
-4.167e-05,0.54
-4.166e-05,0.54
-4.165e-05,0.54
-4.164e-05,0.54
-4.163e-05,0.56
-4.162e-05,0.54
-4.161e-05,0.54
-4.160e-05,0.52
-4.159e-05,0.5
-4.158e-05,0.52
-4.157e-05,0.5
-4.156e-05,0.5
-4.155e-05,0.5
-4.154e-05,0.48
-4.153e-05,0.48
-4.152e-05,0.48
-4.151e-05,0.46
-4.150e-05,0.46
-4.149e-05,0.44
-4.148e-05,0.44
-4.147e-05,0.44
-4.146e-05,0.44
-4.145e-05,0.44
-4.144e-05,0.42
-4.143e-05,0.42
-4.142e-05,0.4
-4.141e-05,0.4
-4.140e-05,0.4
-4.139e-05,0.36
-4.138e-05,0.38
-4.137e-05,0.38
-4.136e-05,0.38
-4.135e-05,0.36
-4.134e-05,0.36
-4.133e-05,0.34
-4.132e-05,0.34
-4.131e-05,0.34
-4.130e-05,0.32
-4.129e-05,0.3
-4.128e-05,0.3
-4.127e-05,0.32
-4.126e-05,0.3
-4.125e-05,0.3
-4.124e-05,0.28
-4.123e-05,0.28
-4.122e-05,0.26
-4.121e-05,0.26
-4.120e-05,0.26
-4.119e-05,0.24
-4.118e-05,0.24
-4.117e-05,0.24
-4.116e-05,0.24
-4.115e-05,0.24
-4.114e-05,0.22
-4.113e-05,0.2
-4.112e-05,0.18
-4.111e-05,0.18
-4.110e-05,0.16
-4.109e-05,0.18
-4.108e-05,0.18
-4.107e-05,0.18
-4.106e-05,0.18
-4.105e-05,0.2
-4.104e-05,0.18
-4.103e-05,0.16
-4.102e-05,0.16
-4.101e-05,0.14
-4.100e-05,0.14
-4.099e-05,0.12
-4.098e-05,0.12
-4.097e-05,0.1
-4.096e-05,0.08
-4.095e-05,0.08
-4.094e-05,0.08
-4.093e-05,0.08
-4.092e-05,0.08
-4.091e-05,0.08
-4.090e-05,0.06
-4.089e-05,0.06
-4.088e-05,0.04
-4.087e-05,0.06
-4.086e-05,0.06
-4.085e-05,0.04
-4.084e-05,0.04
-4.083e-05,0.06
-4.082e-05,0.04
-4.081e-05,0.06
-4.080e-05,0.06
-4.079e-05,0.06
-4.078e-05,0.06
-4.077e-05,0.08
-4.076e-05,0.06
-4.075e-05,0.04
-4.074e-05,0.06
-4.073e-05,0.04
-4.072e-05,0.04
-4.071e-05,0.02
-4.070e-05,0.02
-4.069e-05,0.02
-4.068e-05,0.04
-4.067e-05,0
-4.066e-05,0.02
-4.065e-05,0
-4.064e-05,0
-4.063e-05,0
-4.062e-05,0.02
-4.061e-05,0.02
-4.060e-05,0
-4.059e-05,0.02
-4.058e-05,0.02
-4.057e-05,0.04
-4.056e-05,0.04
-4.055e-05,0.04
-4.054e-05,0.06
-4.053e-05,0.06
-4.052e-05,0.06
-4.051e-05,0.06
-4.050e-05,0.08
-4.049e-05,0.08
-4.048e-05,0.08
-4.047e-05,0.1
-4.046e-05,0.08
-4.045e-05,0.06
-4.044e-05,0.08
-4.043e-05,0.06
-4.042e-05,0.06
-4.041e-05,0.04
-4.040e-05,0.06
-4.039e-05,0.06
-4.038e-05,0.04
-4.037e-05,0.1
-4.036e-05,0.08
-4.035e-05,0.08
-4.034e-05,0.08
-4.033e-05,0.12
-4.032e-05,0.14
-4.031e-05,0.14
-4.030e-05,0.14
-4.029e-05,0.14
-4.028e-05,0.16
-4.027e-05,0.16
-4.026e-05,0.2
-4.025e-05,0.18
-4.024e-05,0.18
-4.023e-05,0.2
-4.022e-05,0.2
-4.021e-05,0.18
-4.020e-05,0.2
-4.019e-05,0.18
-4.018e-05,0.2
-4.017e-05,0.2
-4.016e-05,0.2
-4.015e-05,0.2
-4.014e-05,0.22
-4.013e-05,0.24
-4.012e-05,0.24
-4.011e-05,0.24
-4.010e-05,0.24
-4.009e-05,0.26
-4.008e-05,0.28
-4.007e-05,0.3
-4.006e-05,0.3
-4.005e-05,0.3
-4.004e-05,0.34
-4.003e-05,0.32
-4.002e-05,0.34
-4.001e-05,0.36
-4.000e-05,0.36
-3.999e-05,0.36
-3.998e-05,0.36
-3.997e-05,0.36
-3.996e-05,0.36
-3.995e-05,0.38
-3.994e-05,0.36
-3.993e-05,0.36
-3.992e-05,0.38
-3.991e-05,0.4
-3.990e-05,0.4
-3.989e-05,0.4
-3.988e-05,0.4
-3.987e-05,0.4
-3.986e-05,0.42
-3.985e-05,0.42
-3.984e-05,0.44
-3.983e-05,0.46
-3.982e-05,0.46
-3.981e-05,0.48
-3.980e-05,0.48
-3.979e-05,0.48
-3.978e-05,0.5
-3.977e-05,0.5
-3.976e-05,0.5
-3.975e-05,0.52
-3.974e-05,0.5
-3.973e-05,0.52
-3.972e-05,0.52
-3.971e-05,0.5
-3.970e-05,0.5
-3.969e-05,0.52
-3.968e-05,0.5
-3.967e-05,0.52
-3.966e-05,0.54
-3.965e-05,0.52
-3.964e-05,0.56
-3.963e-05,0.54
-3.962e-05,0.56
-3.961e-05,0.56
-3.960e-05,0.58
-3.959e-05,0.58
-3.958e-05,0.6
-3.957e-05,0.58
-3.956e-05,0.58
-3.955e-05,0.6
-3.954e-05,0.58
-3.953e-05,0.6
-3.952e-05,0.6
-3.951e-05,0.58
-3.950e-05,0.6
-3.949e-05,0.6
-3.948e-05,0.6
-3.947e-05,0.6
-3.946e-05,0.58
-3.945e-05,0.6
-3.944e-05,0.6
-3.943e-05,0.58
-3.942e-05,0.58
-3.941e-05,0.6
-3.940e-05,0.6
-3.939e-05,0.6
-3.938e-05,0.6
-3.937e-05,0.58
-3.936e-05,0.6
-3.935e-05,0.6
-3.934e-05,0.6
-3.933e-05,0.6
-3.932e-05,0.6
-3.931e-05,0.62
-3.930e-05,0.6
-3.929e-05,0.6
-3.928e-05,0.6
-3.927e-05,0.6
-3.926e-05,0.58
-3.925e-05,0.58
-3.924e-05,0.58
-3.923e-05,0.58
-3.922e-05,0.58
-3.921e-05,0.58
-3.920e-05,0.56
-3.919e-05,0.56
-3.918e-05,0.54
-3.917e-05,0.54
-3.916e-05,0.54
-3.915e-05,0.54
-3.914e-05,0.54
-3.913e-05,0.54
-3.912e-05,0.52
-3.911e-05,0.52
-3.910e-05,0.52
-3.909e-05,0.52
-3.908e-05,0.52
-3.907e-05,0.5
-3.906e-05,0.5
-3.905e-05,0.5
-3.904e-05,0.48
-3.903e-05,0.48
-3.902e-05,0.48
-3.901e-05,0.48
-3.900e-05,0.46
-3.899e-05,0.44
-3.898e-05,0.46
-3.897e-05,0.44
-3.896e-05,0.44
-3.895e-05,0.42
-3.894e-05,0.44
-3.893e-05,0.4
-3.892e-05,0.42
-3.891e-05,0.38
-3.890e-05,0.38
-3.889e-05,0.38
-3.888e-05,0.36
-3.887e-05,0.38
-3.886e-05,0.36
-3.885e-05,0.36
-3.884e-05,0.34
-3.883e-05,0.36
-3.882e-05,0.36
-3.881e-05,0.32
-3.880e-05,0.34
-3.879e-05,0.34
-3.878e-05,0.32
-3.877e-05,0.3
-3.876e-05,0.3
-3.875e-05,0.3
-3.874e-05,0.28
-3.873e-05,0.28
-3.872e-05,0.28
-3.871e-05,0.26
-3.870e-05,0.26
-3.869e-05,0.24
-3.868e-05,0.24
-3.867e-05,0.26
-3.866e-05,0.22
-3.865e-05,0.22
-3.864e-05,0.2
-3.863e-05,0.2
-3.862e-05,0.18
-3.861e-05,0.2
-3.860e-05,0.2
-3.859e-05,0.18
-3.858e-05,0.18
-3.857e-05,0.16
-3.856e-05,0.16
-3.855e-05,0.16
-3.854e-05,0.14
-3.853e-05,0.14
-3.852e-05,0.14
-3.851e-05,0.14
-3.850e-05,0.12
-3.849e-05,0.12
-3.848e-05,0.12
-3.847e-05,0.1
-3.846e-05,0.12
-3.845e-05,0.1
-3.844e-05,0.1
-3.843e-05,0.08
-3.842e-05,0.08
-3.841e-05,0.08
-3.840e-05,0.06
-3.839e-05,0.08
-3.838e-05,0.08
-3.837e-05,0.08
-3.836e-05,0.06
-3.835e-05,0.06
-3.834e-05,0.06
-3.833e-05,0.06
-3.832e-05,0.04
-3.831e-05,0.06
-3.830e-05,0.06
-3.829e-05,0.04
-3.828e-05,0.06
-3.827e-05,0.04
-3.826e-05,0.04
-3.825e-05,0.02
-3.824e-05,0.02
-3.823e-05,0.02
-3.822e-05,0.02
-3.821e-05,0.06
-3.820e-05,0.02
-3.819e-05,0.04
-3.818e-05,0.04
-3.817e-05,0.02
-3.816e-05,0.02
-3.815e-05,0.02
-3.814e-05,0.02
-3.813e-05,0
-3.812e-05,0.02
-3.811e-05,0.02
-3.810e-05,0.02
-3.809e-05,0
-3.808e-05,0
-3.807e-05,0.04
-3.806e-05,0.02
-3.805e-05,0.04
-3.804e-05,0.04
-3.803e-05,0.06
-3.802e-05,0.06
-3.801e-05,0.06
-3.800e-05,0.1
-3.799e-05,0.08
-3.798e-05,0.08
-3.797e-05,0.06
-3.796e-05,0.06
-3.795e-05,0.06
-3.794e-05,0.04
-3.793e-05,0.04
-3.792e-05,0.04
-3.791e-05,0.04
-3.790e-05,0.04
-3.789e-05,0.06
-3.788e-05,0.06
-3.787e-05,0.08
-3.786e-05,0.08
-3.785e-05,0.1
-3.784e-05,0.1
-3.783e-05,0.12
-3.782e-05,0.12
-3.781e-05,0.12
-3.780e-05,0.14
-3.779e-05,0.18
-3.778e-05,0.18
-3.777e-05,0.18
-3.776e-05,0.18
-3.775e-05,0.2
-3.774e-05,0.2
-3.773e-05,0.22
-3.772e-05,0.22
-3.771e-05,0.22
-3.770e-05,0.2
-3.769e-05,0.22
-3.768e-05,0.22
-3.767e-05,0.22
-3.766e-05,0.22
-3.765e-05,0.2
-3.764e-05,0.18
-3.763e-05,0.2
-3.762e-05,0.2
-3.761e-05,0.22
-3.760e-05,0.22
-3.759e-05,0.22
-3.758e-05,0.26
-3.757e-05,0.26
-3.756e-05,0.3
-3.755e-05,0.32
-3.754e-05,0.32
-3.753e-05,0.34
-3.752e-05,0.36
